module github.com/horriblename/lf

go 1.12

require (
	github.com/gdamore/tcell/v2 v2.5.4-0.20221019011350-d3cbfcfb7aa3
	github.com/mattn/go-runewidth v0.0.14
	golang.org/x/sys v0.0.0-20220722155257-8c9f86f7a55f
	golang.org/x/term v0.0.0-20210927222741-03fcf44c2211
	github.com/djherbis/times v1.5.0
)
